\relax 
\providecommand\zref@newlabel[2]{}
\providecommand{\transparent@use}[1]{}
\providecommand\babel@aux[2]{}
\@nameuse{bbl@beforestart}
\catcode `"\active 
\catcode `<\active 
\catcode `>\active 
\@nameuse{es@quoting}
\providecommand\hyper@newdestlabel[2]{}
\providecommand\HyperFirstAtBeginDocument{\AtBeginDocument}
\HyperFirstAtBeginDocument{\ifx\hyper@anchor\@undefined
\global\let\oldnewlabel\newlabel
\gdef\newlabel#1#2{\newlabelxx{#1}#2}
\gdef\newlabelxx#1#2#3#4#5#6{\oldnewlabel{#1}{{#2}{#3}}}
\AtEndDocument{\ifx\hyper@anchor\@undefined
\let\newlabel\oldnewlabel
\fi}
\fi}
\global\let\hyper@last\relax 
\gdef\HyperFirstAtBeginDocument#1{#1}
\providecommand\HyField@AuxAddToFields[1]{}
\providecommand\HyField@AuxAddToCoFields[2]{}
\babel@aux{spanish}{}
\@writefile{toc}{\contentsline {section}{\numberline {1}Introducción}{3}{section.1}\protected@file@percent }
\@writefile{toc}{\contentsline {section}{\numberline {2}Análisis Exploratorio y Tratamiento de Datos}{3}{section.2}\protected@file@percent }
\@writefile{toc}{\contentsline {subsection}{\numberline {2.1}Descripción de la estructura de los datos}{3}{subsection.2.1}\protected@file@percent }
\@writefile{lol}{\contentsline {lstlisting}{\numberline {1}Muestra de los datos}{3}{lstlisting.1}\protected@file@percent }
\@writefile{toc}{\contentsline {subsection}{\numberline {2.2}Identificación de datos faltantes}{5}{subsection.2.2}\protected@file@percent }
\@writefile{lol}{\contentsline {lstlisting}{\numberline {2}Valores únicos variable CarName}{5}{lstlisting.2}\protected@file@percent }
\@writefile{toc}{\contentsline {subsection}{\numberline {2.3}Identificación de relaciones entre variables}{5}{subsection.2.3}\protected@file@percent }
\@writefile{toc}{\contentsline {subsubsection}{\numberline {2.3.1}Histograma fabricante}{5}{subsubsection.2.3.1}\protected@file@percent }
\@writefile{lof}{\contentsline {figure}{\numberline {1}{\ignorespaces Histograma Fabricantes}}{6}{figure.1}\protected@file@percent }
\@writefile{toc}{\contentsline {subsubsection}{\numberline {2.3.2}Distribución del precio}{6}{subsubsection.2.3.2}\protected@file@percent }
\@writefile{lof}{\contentsline {figure}{\numberline {2}{\ignorespaces Densidad Precio}}{6}{figure.2}\protected@file@percent }
\@writefile{toc}{\contentsline {subsubsection}{\numberline {2.3.3}Variables numéricas}{7}{subsubsection.2.3.3}\protected@file@percent }
\@writefile{lof}{\contentsline {figure}{\numberline {3}{\ignorespaces Correlación variables numéricas}}{7}{figure.3}\protected@file@percent }
\@writefile{toc}{\contentsline {subsubsection}{\numberline {2.3.4}Variables categóricas}{7}{subsubsection.2.3.4}\protected@file@percent }
\@writefile{lof}{\contentsline {figure}{\numberline {4}{\ignorespaces Boxplot variables categóricas}}{8}{figure.4}\protected@file@percent }
\@writefile{toc}{\contentsline {subsection}{\numberline {2.4}Predictores Cualitativos}{8}{subsection.2.4}\protected@file@percent }
\@writefile{toc}{\contentsline {section}{\numberline {3}Selección del Modelo}{8}{section.3}\protected@file@percent }
\@writefile{toc}{\contentsline {subsection}{\numberline {3.1}Baseline}{9}{subsection.3.1}\protected@file@percent }
\@writefile{toc}{\contentsline {subsection}{\numberline {3.2}Backward y Forward}{9}{subsection.3.2}\protected@file@percent }
\@writefile{toc}{\contentsline {subsubsection}{\numberline {3.2.1}Backward}{9}{subsubsection.3.2.1}\protected@file@percent }
\@writefile{toc}{\contentsline {subsubsection}{\numberline {3.2.2}Forward}{9}{subsubsection.3.2.2}\protected@file@percent }
\@writefile{toc}{\contentsline {subsection}{\numberline {3.3}Best Subset}{9}{subsection.3.3}\protected@file@percent }
\@writefile{toc}{\contentsline {subsection}{\numberline {3.4}Resultado}{9}{subsection.3.4}\protected@file@percent }
\@writefile{toc}{\contentsline {section}{\numberline {4}Diagnóstico del Modelo}{9}{section.4}\protected@file@percent }
\@writefile{toc}{\contentsline {section}{\numberline {5}Evaluación del Modelo}{10}{section.5}\protected@file@percent }
\@writefile{toc}{\contentsline {section}{\numberline {6}Conclusión}{10}{section.6}\protected@file@percent }
\gdef \@abspage@last{10}
